module github.com/wencaiwulue/kubevpn

go 1.20

require (
	github.com/cilium/ipam v0.0.0-20220824141044-46ef3d556735
	github.com/containerd/containerd v1.5.18
	github.com/containernetworking/cni v1.1.2
	github.com/coredns/caddy v1.1.1
	github.com/coredns/coredns v1.10.1
	github.com/docker/cli v23.0.1+incompatible
	github.com/docker/distribution v2.8.1+incompatible
	github.com/docker/docker v23.0.1+incompatible
	github.com/docker/go-connections v0.4.0
	github.com/docker/libcontainer v2.2.1+incompatible
	github.com/envoyproxy/go-control-plane v0.10.3
	github.com/fsnotify/fsnotify v1.6.0
	github.com/google/gopacket v1.1.19
	github.com/google/uuid v1.3.0
	github.com/hashicorp/go-version v1.6.0
	github.com/hpcloud/tail v1.0.0
	github.com/jcmturner/gokrb5/v8 v8.4.3
	github.com/kevinburke/ssh_config v1.2.0
	github.com/libp2p/go-netroute v0.2.1
	github.com/mattbaird/jsonpatch v0.0.0-20200820163806-098863c1fc24
	github.com/miekg/dns v1.1.50
	github.com/moby/term v0.0.0-20221205130635-1aeaba878587
	github.com/opencontainers/image-spec v1.0.3-0.20220303224323-02efb9a75ee1
	github.com/pkg/errors v0.9.1
	github.com/prometheus-community/pro-bing v0.1.0
	github.com/schollz/progressbar/v3 v3.13.0
	github.com/sirupsen/logrus v1.9.0
	github.com/spf13/cobra v1.6.1
	github.com/spf13/pflag v1.0.5
	go.uber.org/automaxprocs v1.5.1
	golang.org/x/crypto v0.2.0
	golang.org/x/exp v0.0.0-20230725093048-515e97ebf090
	golang.org/x/net v0.8.0
	golang.org/x/oauth2 v0.6.0
	golang.org/x/sync v0.1.0
	golang.org/x/sys v0.6.0
	golang.org/x/text v0.8.0
	golang.org/x/time v0.3.0
	golang.zx2c4.com/wintun v0.0.0-20211104114900-415007cec224
	golang.zx2c4.com/wireguard v0.0.0-20220920152132-bb719d3a6e2c
	golang.zx2c4.com/wireguard/windows v0.5.3
	google.golang.org/grpc v1.53.0-dev.0.20230123225046-4075ef07c5d5
	google.golang.org/protobuf v1.30.0
	gopkg.in/natefinch/lumberjack.v2 v2.0.0
	gvisor.dev/gvisor v0.0.0-20230603040744-5c9219dedd33
	k8s.io/api v0.26.3
	k8s.io/apimachinery v0.26.3
	k8s.io/cli-runtime v0.26.1
	k8s.io/client-go v0.26.3
	k8s.io/kubectl v0.26.1
	k8s.io/utils v0.0.0-20230313181309-38a27ef9d749
	sigs.k8s.io/controller-runtime v0.14.5
	sigs.k8s.io/kustomize/api v0.12.1
	sigs.k8s.io/yaml v1.3.0
)

require (
	cloud.google.com/go/compute v1.15.1 // indirect
	cloud.google.com/go/compute/metadata v0.2.3 // indirect
	github.com/Azure/azure-sdk-for-go v68.0.0+incompatible // indirect
	github.com/Azure/go-ansiterm v0.0.0-20210617225240-d185dfc1b5a1 // indirect
	github.com/Azure/go-autorest v14.2.0+incompatible // indirect
	github.com/Azure/go-autorest/autorest v0.11.28 // indirect
	github.com/Azure/go-autorest/autorest/adal v0.9.18 // indirect
	github.com/Azure/go-autorest/autorest/azure/auth v0.5.12 // indirect
	github.com/Azure/go-autorest/autorest/azure/cli v0.4.5 // indirect
	github.com/Azure/go-autorest/autorest/date v0.3.0 // indirect
	github.com/Azure/go-autorest/autorest/to v0.2.0 // indirect
	github.com/Azure/go-autorest/logger v0.2.1 // indirect
	github.com/Azure/go-autorest/tracing v0.6.0 // indirect
	github.com/DataDog/datadog-agent/pkg/obfuscate v0.0.0-20211129110424-6491aa3bf583 // indirect
	github.com/DataDog/datadog-agent/pkg/remoteconfig/state v0.42.0-rc.1 // indirect
	github.com/DataDog/datadog-go v4.8.2+incompatible // indirect
	github.com/DataDog/datadog-go/v5 v5.0.2 // indirect
	github.com/DataDog/go-tuf v0.3.0--fix-localmeta-fork // indirect
	github.com/DataDog/sketches-go v1.2.1 // indirect
	github.com/MakeNowJust/heredoc v1.0.0 // indirect
	github.com/Microsoft/go-winio v0.6.0 // indirect
	github.com/antonmedv/expr v1.12.0 // indirect
	github.com/apparentlymart/go-cidr v1.1.0 // indirect
	github.com/aws/aws-sdk-go v1.44.194 // indirect
	github.com/beorn7/perks v1.0.1 // indirect
	github.com/census-instrumentation/opencensus-proto v0.4.1 // indirect
	github.com/cespare/xxhash/v2 v2.2.0 // indirect
	github.com/chai2010/gettext-go v1.0.2 // indirect
	github.com/cncf/xds/go v0.0.0-20230112175826-46e39c7b9b43 // indirect
	github.com/coreos/go-semver v0.3.0 // indirect
	github.com/coreos/go-systemd/v22 v22.3.2 // indirect
	github.com/davecgh/go-spew v1.1.1 // indirect
	github.com/dgraph-io/ristretto v0.1.0 // indirect
	github.com/dimchansky/utfbom v1.1.1 // indirect
	github.com/dnstap/golang-dnstap v0.4.0 // indirect
	github.com/docker/docker-credential-helpers v0.7.0 // indirect
	github.com/docker/go v1.5.1-1.0.20160303222718-d30aec9fd63c // indirect
	github.com/docker/go-metrics v0.0.1 // indirect
	github.com/docker/go-units v0.5.0 // indirect
	github.com/dustin/go-humanize v1.0.0 // indirect
	github.com/emicklei/go-restful/v3 v3.10.2 // indirect
	github.com/envoyproxy/protoc-gen-validate v0.9.1 // indirect
	github.com/evanphx/json-patch v5.6.0+incompatible // indirect
	github.com/evanphx/json-patch/v5 v5.6.0 // indirect
	github.com/exponent-io/jsonpath v0.0.0-20210407135951-1de76d718b3f // indirect
	github.com/farsightsec/golang-framestream v0.3.0 // indirect
	github.com/fatih/camelcase v1.0.0 // indirect
	github.com/flynn/go-shlex v0.0.0-20150515145356-3f9db97f8568 // indirect
	github.com/fvbommel/sortorder v1.0.2 // indirect
	github.com/go-errors/errors v1.4.2 // indirect
	github.com/go-logr/logr v1.2.3 // indirect
	github.com/go-openapi/jsonpointer v0.19.6 // indirect
	github.com/go-openapi/jsonreference v0.20.2 // indirect
	github.com/go-openapi/swag v0.22.3 // indirect
	github.com/gogo/protobuf v1.3.2 // indirect
	github.com/golang-jwt/jwt/v4 v4.2.0 // indirect
	github.com/golang/glog v1.0.0 // indirect
	github.com/golang/groupcache v0.0.0-20210331224755-41bb18bfe9da // indirect
	github.com/golang/protobuf v1.5.3 // indirect
	github.com/google/btree v1.1.2 // indirect
	github.com/google/gnostic v0.6.9 // indirect
	github.com/google/go-cmp v0.5.9 // indirect
	github.com/google/gofuzz v1.2.0 // indirect
	github.com/google/shlex v0.0.0-20191202100458-e7afc7fbc510 // indirect
	github.com/googleapis/enterprise-certificate-proxy v0.2.1 // indirect
	github.com/googleapis/gax-go/v2 v2.7.0 // indirect
	github.com/gorilla/mux v1.8.0 // indirect
	github.com/gregjones/httpcache v0.0.0-20190611155906-901d90724c79 // indirect
	github.com/grpc-ecosystem/grpc-opentracing v0.0.0-20180507213350-8e809c8a8645 // indirect
	github.com/hashicorp/go-uuid v1.0.3 // indirect
	github.com/imdario/mergo v0.3.14 // indirect
	github.com/inconshreveable/mousetrap v1.1.0 // indirect
	github.com/infobloxopen/go-trees v0.0.0-20200715205103-96a057b8dfb9 // indirect
	github.com/jcmturner/aescts/v2 v2.0.0 // indirect
	github.com/jcmturner/dnsutils/v2 v2.0.0 // indirect
	github.com/jcmturner/gofork v1.7.6 // indirect
	github.com/jcmturner/goidentity/v6 v6.0.1 // indirect
	github.com/jcmturner/rpc/v2 v2.0.3 // indirect
	github.com/jmespath/go-jmespath v0.4.0 // indirect
	github.com/josharian/intern v1.0.0 // indirect
	github.com/json-iterator/go v1.1.12 // indirect
	github.com/klauspost/compress v1.15.15 // indirect
	github.com/liggitt/tabwriter v0.0.0-20181228230101-89fcab3d43de // indirect
	github.com/mailru/easyjson v0.7.7 // indirect
	github.com/mattn/go-runewidth v0.0.14 // indirect
	github.com/matttproud/golang_protobuf_extensions v1.0.4 // indirect
	github.com/miekg/pkcs11 v1.1.1 // indirect
	github.com/mitchellh/colorstring v0.0.0-20190213212951-d06e56a500db // indirect
	github.com/mitchellh/go-homedir v1.1.0 // indirect
	github.com/mitchellh/go-wordwrap v1.0.1 // indirect
	github.com/mitchellh/mapstructure v1.4.2 // indirect
	github.com/moby/buildkit v0.9.0-rc1 // indirect
	github.com/moby/patternmatcher v0.5.0 // indirect
	github.com/moby/spdystream v0.2.0 // indirect
	github.com/moby/sys/sequential v0.5.0 // indirect
	github.com/moby/sys/signal v0.7.0 // indirect
	github.com/moby/sys/symlink v0.2.0 // indirect
	github.com/modern-go/concurrent v0.0.0-20180306012644-bacd9c7ef1dd // indirect
	github.com/modern-go/reflect2 v1.0.2 // indirect
	github.com/monochromegane/go-gitignore v0.0.0-20200626010858-205db1a8cc00 // indirect
	github.com/morikuni/aec v1.0.0 // indirect
	github.com/munnerz/goautoneg v0.0.0-20191010083416-a7dc8b61c822 // indirect
	github.com/opencontainers/go-digest v1.0.0 // indirect
	github.com/opencontainers/runc v1.1.4 // indirect
	github.com/opentracing-contrib/go-observer v0.0.0-20170622124052-a52f23424492 // indirect
	github.com/opentracing/opentracing-go v1.2.0 // indirect
	github.com/openzipkin-contrib/zipkin-go-opentracing v0.5.0 // indirect
	github.com/openzipkin/zipkin-go v0.4.1 // indirect
	github.com/oschwald/geoip2-golang v1.8.0 // indirect
	github.com/oschwald/maxminddb-golang v1.10.0 // indirect
	github.com/peterbourgon/diskv v2.0.1+incompatible // indirect
	github.com/philhofer/fwd v1.1.1 // indirect
	github.com/prometheus/client_golang v1.14.0 // indirect
	github.com/prometheus/client_model v0.3.0 // indirect
	github.com/prometheus/common v0.42.0 // indirect
	github.com/prometheus/procfs v0.9.0 // indirect
	github.com/rivo/uniseg v0.4.3 // indirect
	github.com/russross/blackfriday/v2 v2.1.0 // indirect
	github.com/secure-systems-lab/go-securesystemslib v0.4.0 // indirect
	github.com/theupdateframework/notary v0.7.0 // indirect
	github.com/tinylib/msgp v1.1.6 // indirect
	github.com/xeipuuv/gojsonpointer v0.0.0-20180127040702-4e3ac2762d5f // indirect
	github.com/xeipuuv/gojsonreference v0.0.0-20180127040603-bd5ef7bd5415 // indirect
	github.com/xeipuuv/gojsonschema v1.2.0 // indirect
	github.com/xlab/treeprint v1.1.0 // indirect
	go.etcd.io/etcd/api/v3 v3.5.7 // indirect
	go.etcd.io/etcd/client/pkg/v3 v3.5.7 // indirect
	go.etcd.io/etcd/client/v3 v3.5.7 // indirect
	go.opencensus.io v0.24.0 // indirect
	go.starlark.net v0.0.0-20230112144946-fae38c8a6d89 // indirect
	go.uber.org/atomic v1.9.0 // indirect
	go.uber.org/multierr v1.6.0 // indirect
	go.uber.org/zap v1.24.0 // indirect
	go4.org/intern v0.0.0-20211027215823-ae77deb06f29 // indirect
	go4.org/unsafe/assume-no-moving-gc v0.0.0-20220617031537-928513b29760 // indirect
	golang.org/x/mod v0.11.0 // indirect
	golang.org/x/term v0.6.0 // indirect
	golang.org/x/tools v0.6.0 // indirect
	golang.org/x/xerrors v0.0.0-20220907171357-04be3eba64a2 // indirect
	gomodules.xyz/jsonpatch/v2 v2.2.0 // indirect
	google.golang.org/api v0.109.0 // indirect
	google.golang.org/appengine v1.6.7 // indirect
	google.golang.org/genproto v0.0.0-20230113154510-dbe35b8444a5 // indirect
	gopkg.in/DataDog/dd-trace-go.v1 v1.47.0 // indirect
	gopkg.in/fsnotify.v1 v1.4.7 // indirect
	gopkg.in/inf.v0 v0.9.1 // indirect
	gopkg.in/tomb.v1 v1.0.0-20141024135613-dd632973f1e7 // indirect
	gopkg.in/yaml.v2 v2.4.0 // indirect
	gopkg.in/yaml.v3 v3.0.1 // indirect
	inet.af/netaddr v0.0.0-20220617031823-097006376321 // indirect
	k8s.io/apiextensions-apiserver v0.26.3 // indirect
	k8s.io/component-base v0.26.3 // indirect
	k8s.io/klog/v2 v2.90.1 // indirect
	k8s.io/kube-openapi v0.0.0-20230308215209-15aac26d736a // indirect
	sigs.k8s.io/json v0.0.0-20221116044647-bc3834ca7abd // indirect
	sigs.k8s.io/kustomize/kyaml v0.13.9 // indirect
	sigs.k8s.io/structured-merge-diff/v4 v4.2.3 // indirect
)
